﻿<?xml version="1.0" encoding="UTF-8"?>
<TestRun id="9e32438a-3d84-48a1-8717-132d6c56cd82" name="G N MALEK@GNMALEK-PC 2015-06-15 14:03:07" runUser="GNMALEK-PC\G N MALEK" xmlns="http://microsoft.com/schemas/VisualStudio/TeamTest/2010">
  <TestSettings name="Local" id="d6fa9a0b-6569-4cdc-81f4-b9bcb5e907e7">
    <Description>These are default test settings for a local test run.</Description>
    <Deployment enabled="false" runDeploymentRoot="G N MALEK_GNMALEK-PC 2015-06-15 14_03_07">
      <DeploymentItem filename="E:\bitbucketRepository\aviva-fizz-buzz-fuzail-mansoori\AvivaFizzBuzz\AvivaFizzBuzz.Web\bin\AvivaFizzBuzz.Web.dll" />
    </Deployment>
    <Execution>
      <TestTypeSpecific />
      <AgentRule name="Execution Agents">
      </AgentRule>
    </Execution>
  </TestSettings>
  <Times creation="2015-06-15T14:03:07.4230000+05:30" queuing="2015-06-15T14:03:08.6490000+05:30" start="2015-06-15T14:03:08.7650000+05:30" finish="2015-06-15T14:03:18.6460000+05:30" />
  <ResultSummary outcome="Failed">
    <Counters total="12" executed="12" passed="8" error="0" failed="4" timeout="0" aborted="0" inconclusive="0" passedButRunAborted="0" notRunnable="0" notExecuted="0" disconnected="0" warning="0" completed="0" inProgress="0" pending="0" />
  </ResultSummary>
  <TestDefinitions>
    <UnitTest name="Methods_Returns_Output_String_FizzBuzz" storage="e:\bitbucketrepository\aviva-fizz-buzz-fuzail-mansoori\avivafizzbuzz\avivafizzbuzz.unittest\bin\debug\avivafizzbuzz.unittest.dll" id="618acf3b-f6fe-7c09-b5e6-652d38cc7f8b">
      <Execution id="a4c43eb8-5278-4b5d-866d-b9dea563a693" />
      <TestMethod codeBase="E:/bitbucketRepository/aviva-fizz-buzz-fuzail-mansoori/AvivaFizzBuzz/AvivaFizzBuzz.UnitTest/bin/Debug/AvivaFizzBuzz.UnitTest.DLL" adapterTypeName="Microsoft.VisualStudio.TestTools.TestTypes.Unit.UnitTestAdapter, Microsoft.VisualStudio.QualityTools.Tips.UnitTest.Adapter, Version=10.0.0.0, Culture=neutral, PublicKeyToken=b03f5f7f11d50a3a" className="AvivaFizzBuzz.UnitTest.FizzBuzzRepositoryTest, AvivaFizzBuzz.UnitTest, Version=1.0.0.0, Culture=neutral, PublicKeyToken=null" name="Methods_Returns_Output_String_FizzBuzz" />
    </UnitTest>
    <UnitTest name="Passing_Number_Fifteen_Returns_Output_Items_Count_Fifteen" storage="e:\bitbucketrepository\aviva-fizz-buzz-fuzail-mansoori\avivafizzbuzz\avivafizzbuzz.unittest\bin\debug\avivafizzbuzz.unittest.dll" id="48a76434-4925-75c2-50dc-6c7914285373">
      <Execution id="8a427247-d97c-4407-9a35-84114c5b3a90" />
      <TestMethod codeBase="E:/bitbucketRepository/aviva-fizz-buzz-fuzail-mansoori/AvivaFizzBuzz/AvivaFizzBuzz.UnitTest/bin/Debug/AvivaFizzBuzz.UnitTest.DLL" adapterTypeName="Microsoft.VisualStudio.TestTools.TestTypes.Unit.UnitTestAdapter, Microsoft.VisualStudio.QualityTools.Tips.UnitTest.Adapter, Version=10.0.0.0, Culture=neutral, PublicKeyToken=b03f5f7f11d50a3a" className="AvivaFizzBuzz.UnitTest.UnitOfWorkTest, AvivaFizzBuzz.UnitTest, Version=1.0.0.0, Culture=neutral, PublicKeyToken=null" name="Passing_Number_Fifteen_Returns_Output_Items_Count_Fifteen" />
    </UnitTest>
    <UnitTest name="Passing_number_Three_Returns_Boolean_True" storage="e:\bitbucketrepository\aviva-fizz-buzz-fuzail-mansoori\avivafizzbuzz\avivafizzbuzz.unittest\bin\debug\avivafizzbuzz.unittest.dll" id="44729e2d-7f90-f836-4902-81b623b7bc80">
      <Execution id="3e0f73ec-9c83-42aa-b61c-d00ebb7d55db" />
      <TestMethod codeBase="E:/bitbucketRepository/aviva-fizz-buzz-fuzail-mansoori/AvivaFizzBuzz/AvivaFizzBuzz.UnitTest/bin/Debug/AvivaFizzBuzz.UnitTest.DLL" adapterTypeName="Microsoft.VisualStudio.TestTools.TestTypes.Unit.UnitTestAdapter, Microsoft.VisualStudio.QualityTools.Tips.UnitTest.Adapter, Version=10.0.0.0, Culture=neutral, PublicKeyToken=b03f5f7f11d50a3a" className="AvivaFizzBuzz.UnitTest.FizzRepositoryTest, AvivaFizzBuzz.UnitTest, Version=1.0.0.0, Culture=neutral, PublicKeyToken=null" name="Passing_number_Three_Returns_Boolean_True" />
    </UnitTest>
    <UnitTest name="Index_ActionResult_Returns_Lists_Of_Items" storage="e:\bitbucketrepository\aviva-fizz-buzz-fuzail-mansoori\avivafizzbuzz\avivafizzbuzz.unittest\bin\debug\avivafizzbuzz.unittest.dll" id="ee48e863-5218-f55a-d0bf-6bff2466533b">
      <Execution id="0ef0f921-2814-4378-b08b-06f1c4b29714" />
      <TestMethod codeBase="E:/bitbucketRepository/aviva-fizz-buzz-fuzail-mansoori/AvivaFizzBuzz/AvivaFizzBuzz.UnitTest/bin/Debug/AvivaFizzBuzz.UnitTest.DLL" adapterTypeName="Microsoft.VisualStudio.TestTools.TestTypes.Unit.UnitTestAdapter, Microsoft.VisualStudio.QualityTools.Tips.UnitTest.Adapter, Version=10.0.0.0, Culture=neutral, PublicKeyToken=b03f5f7f11d50a3a" className="AvivaFizzBuzz.UnitTest.FizzBuzzControllerTest, AvivaFizzBuzz.UnitTest, Version=1.0.0.0, Culture=neutral, PublicKeyToken=null" name="Index_ActionResult_Returns_Lists_Of_Items" />
    </UnitTest>
    <UnitTest name="Index_ActionResult_Returns_ViewResult" storage="e:\bitbucketrepository\aviva-fizz-buzz-fuzail-mansoori\avivafizzbuzz\avivafizzbuzz.unittest\bin\debug\avivafizzbuzz.unittest.dll" id="dd2e0762-438f-26d1-4f5a-f25597944f75">
      <Execution id="85d02beb-3556-4f8c-a777-1fca10a93270" />
      <TestMethod codeBase="E:/bitbucketRepository/aviva-fizz-buzz-fuzail-mansoori/AvivaFizzBuzz/AvivaFizzBuzz.UnitTest/bin/Debug/AvivaFizzBuzz.UnitTest.DLL" adapterTypeName="Microsoft.VisualStudio.TestTools.TestTypes.Unit.UnitTestAdapter, Microsoft.VisualStudio.QualityTools.Tips.UnitTest.Adapter, Version=10.0.0.0, Culture=neutral, PublicKeyToken=b03f5f7f11d50a3a" className="AvivaFizzBuzz.UnitTest.FizzBuzzControllerTest, AvivaFizzBuzz.UnitTest, Version=1.0.0.0, Culture=neutral, PublicKeyToken=null" name="Index_ActionResult_Returns_ViewResult" />
    </UnitTest>
    <UnitTest name="Passing_number_Five_Returns_Output_Boolean_True" storage="e:\bitbucketrepository\aviva-fizz-buzz-fuzail-mansoori\avivafizzbuzz\avivafizzbuzz.unittest\bin\debug\avivafizzbuzz.unittest.dll" id="a62a8796-9a34-47aa-e2b0-da55cac8dcde">
      <Execution id="847c079b-27a9-4156-857c-30769dd2b51b" />
      <TestMethod codeBase="E:/bitbucketRepository/aviva-fizz-buzz-fuzail-mansoori/AvivaFizzBuzz/AvivaFizzBuzz.UnitTest/bin/Debug/AvivaFizzBuzz.UnitTest.DLL" adapterTypeName="Microsoft.VisualStudio.TestTools.TestTypes.Unit.UnitTestAdapter, Microsoft.VisualStudio.QualityTools.Tips.UnitTest.Adapter, Version=10.0.0.0, Culture=neutral, PublicKeyToken=b03f5f7f11d50a3a" className="AvivaFizzBuzz.UnitTest.BuzzRepositoryTest, AvivaFizzBuzz.UnitTest, Version=1.0.0.0, Culture=neutral, PublicKeyToken=null" name="Passing_number_Five_Returns_Output_Boolean_True" />
    </UnitTest>
    <UnitTest name="Passing_Number_Fifteen_Returns_Output_Boolean_True" storage="e:\bitbucketrepository\aviva-fizz-buzz-fuzail-mansoori\avivafizzbuzz\avivafizzbuzz.unittest\bin\debug\avivafizzbuzz.unittest.dll" id="933b57a3-5db4-ec67-8f07-389246d8cf7e">
      <Execution id="34ebd547-0397-4f5b-9e2f-11875ada57e1" />
      <TestMethod codeBase="E:/bitbucketRepository/aviva-fizz-buzz-fuzail-mansoori/AvivaFizzBuzz/AvivaFizzBuzz.UnitTest/bin/Debug/AvivaFizzBuzz.UnitTest.DLL" adapterTypeName="Microsoft.VisualStudio.TestTools.TestTypes.Unit.UnitTestAdapter, Microsoft.VisualStudio.QualityTools.Tips.UnitTest.Adapter, Version=10.0.0.0, Culture=neutral, PublicKeyToken=b03f5f7f11d50a3a" className="AvivaFizzBuzz.UnitTest.FizzBuzzRepositoryTest, AvivaFizzBuzz.UnitTest, Version=1.0.0.0, Culture=neutral, PublicKeyToken=null" name="Passing_Number_Fifteen_Returns_Output_Boolean_True" />
    </UnitTest>
    <UnitTest name="Passing_Number_Less_Than_One_Throws_IndexOutOfRangeException" storage="e:\bitbucketrepository\aviva-fizz-buzz-fuzail-mansoori\avivafizzbuzz\avivafizzbuzz.unittest\bin\debug\avivafizzbuzz.unittest.dll" id="3c517257-eb28-1e5a-14cd-2a33c1891673">
      <Execution id="36805401-8abe-470a-ba53-5cd9ed71480d" />
      <TestMethod codeBase="E:/bitbucketRepository/aviva-fizz-buzz-fuzail-mansoori/AvivaFizzBuzz/AvivaFizzBuzz.UnitTest/bin/Debug/AvivaFizzBuzz.UnitTest.DLL" adapterTypeName="Microsoft.VisualStudio.TestTools.TestTypes.Unit.UnitTestAdapter, Microsoft.VisualStudio.QualityTools.Tips.UnitTest.Adapter, Version=10.0.0.0, Culture=neutral, PublicKeyToken=b03f5f7f11d50a3a" className="AvivaFizzBuzz.UnitTest.UnitOfWorkTest, AvivaFizzBuzz.UnitTest, Version=1.0.0.0, Culture=neutral, PublicKeyToken=null" name="Passing_Number_Less_Than_One_Throws_IndexOutOfRangeException" />
    </UnitTest>
    <UnitTest name="Passing_Number_Greater_Than_OneThousand_Throws_IndexOutOfRangeException" storage="e:\bitbucketrepository\aviva-fizz-buzz-fuzail-mansoori\avivafizzbuzz\avivafizzbuzz.unittest\bin\debug\avivafizzbuzz.unittest.dll" id="852bb707-8402-89a6-5c94-ed405e76cff0">
      <Execution id="17ca3f1b-1d7c-4497-9bea-d086cb927055" />
      <TestMethod codeBase="E:/bitbucketRepository/aviva-fizz-buzz-fuzail-mansoori/AvivaFizzBuzz/AvivaFizzBuzz.UnitTest/bin/Debug/AvivaFizzBuzz.UnitTest.DLL" adapterTypeName="Microsoft.VisualStudio.TestTools.TestTypes.Unit.UnitTestAdapter, Microsoft.VisualStudio.QualityTools.Tips.UnitTest.Adapter, Version=10.0.0.0, Culture=neutral, PublicKeyToken=b03f5f7f11d50a3a" className="AvivaFizzBuzz.UnitTest.UnitOfWorkTest, AvivaFizzBuzz.UnitTest, Version=1.0.0.0, Culture=neutral, PublicKeyToken=null" name="Passing_Number_Greater_Than_OneThousand_Throws_IndexOutOfRangeException" />
    </UnitTest>
    <UnitTest name="Index_ActionResult_Returns_Index_View" storage="e:\bitbucketrepository\aviva-fizz-buzz-fuzail-mansoori\avivafizzbuzz\avivafizzbuzz.unittest\bin\debug\avivafizzbuzz.unittest.dll" id="bc47d95a-3d43-0a98-cb8b-26fcf3c09a9a">
      <Execution id="6d61c708-3754-413c-938d-3fa2f77fd0d4" />
      <TestMethod codeBase="E:/bitbucketRepository/aviva-fizz-buzz-fuzail-mansoori/AvivaFizzBuzz/AvivaFizzBuzz.UnitTest/bin/Debug/AvivaFizzBuzz.UnitTest.DLL" adapterTypeName="Microsoft.VisualStudio.TestTools.TestTypes.Unit.UnitTestAdapter, Microsoft.VisualStudio.QualityTools.Tips.UnitTest.Adapter, Version=10.0.0.0, Culture=neutral, PublicKeyToken=b03f5f7f11d50a3a" className="AvivaFizzBuzz.UnitTest.FizzBuzzControllerTest, AvivaFizzBuzz.UnitTest, Version=1.0.0.0, Culture=neutral, PublicKeyToken=null" name="Index_ActionResult_Returns_Index_View" />
    </UnitTest>
    <UnitTest name="Methods_Returns_Output_String_Buzz" storage="e:\bitbucketrepository\aviva-fizz-buzz-fuzail-mansoori\avivafizzbuzz\avivafizzbuzz.unittest\bin\debug\avivafizzbuzz.unittest.dll" id="a6d5a0c9-9292-7a19-3cbc-93d50c3bdc90">
      <Execution id="14db4ce1-ab2f-4b78-b869-fb389a0f28a3" />
      <TestMethod codeBase="E:/bitbucketRepository/aviva-fizz-buzz-fuzail-mansoori/AvivaFizzBuzz/AvivaFizzBuzz.UnitTest/bin/Debug/AvivaFizzBuzz.UnitTest.DLL" adapterTypeName="Microsoft.VisualStudio.TestTools.TestTypes.Unit.UnitTestAdapter, Microsoft.VisualStudio.QualityTools.Tips.UnitTest.Adapter, Version=10.0.0.0, Culture=neutral, PublicKeyToken=b03f5f7f11d50a3a" className="AvivaFizzBuzz.UnitTest.BuzzRepositoryTest, AvivaFizzBuzz.UnitTest, Version=1.0.0.0, Culture=neutral, PublicKeyToken=null" name="Methods_Returns_Output_String_Buzz" />
    </UnitTest>
    <UnitTest name="Methods_Returns_Output_String_Fizz" storage="e:\bitbucketrepository\aviva-fizz-buzz-fuzail-mansoori\avivafizzbuzz\avivafizzbuzz.unittest\bin\debug\avivafizzbuzz.unittest.dll" id="dc6d8449-d7dc-6503-0a89-39387862d663">
      <Execution id="5ba899b7-8495-4ddd-9cc7-b1f1fe097e32" />
      <TestMethod codeBase="E:/bitbucketRepository/aviva-fizz-buzz-fuzail-mansoori/AvivaFizzBuzz/AvivaFizzBuzz.UnitTest/bin/Debug/AvivaFizzBuzz.UnitTest.DLL" adapterTypeName="Microsoft.VisualStudio.TestTools.TestTypes.Unit.UnitTestAdapter, Microsoft.VisualStudio.QualityTools.Tips.UnitTest.Adapter, Version=10.0.0.0, Culture=neutral, PublicKeyToken=b03f5f7f11d50a3a" className="AvivaFizzBuzz.UnitTest.FizzRepositoryTest, AvivaFizzBuzz.UnitTest, Version=1.0.0.0, Culture=neutral, PublicKeyToken=null" name="Methods_Returns_Output_String_Fizz" />
    </UnitTest>
  </TestDefinitions>
  <TestLists>
    <TestList name="Results Not in a List" id="8c84fa94-04c1-424b-9868-57a2d4851a1d" />
    <TestList name="All Loaded Results" id="19431567-8539-422a-85d7-44ee4e166bda" />
  </TestLists>
  <TestEntries>
    <TestEntry testId="44729e2d-7f90-f836-4902-81b623b7bc80" executionId="3e0f73ec-9c83-42aa-b61c-d00ebb7d55db" testListId="8c84fa94-04c1-424b-9868-57a2d4851a1d" />
    <TestEntry testId="dc6d8449-d7dc-6503-0a89-39387862d663" executionId="5ba899b7-8495-4ddd-9cc7-b1f1fe097e32" testListId="8c84fa94-04c1-424b-9868-57a2d4851a1d" />
    <TestEntry testId="a62a8796-9a34-47aa-e2b0-da55cac8dcde" executionId="847c079b-27a9-4156-857c-30769dd2b51b" testListId="8c84fa94-04c1-424b-9868-57a2d4851a1d" />
    <TestEntry testId="a6d5a0c9-9292-7a19-3cbc-93d50c3bdc90" executionId="14db4ce1-ab2f-4b78-b869-fb389a0f28a3" testListId="8c84fa94-04c1-424b-9868-57a2d4851a1d" />
    <TestEntry testId="933b57a3-5db4-ec67-8f07-389246d8cf7e" executionId="34ebd547-0397-4f5b-9e2f-11875ada57e1" testListId="8c84fa94-04c1-424b-9868-57a2d4851a1d" />
    <TestEntry testId="618acf3b-f6fe-7c09-b5e6-652d38cc7f8b" executionId="a4c43eb8-5278-4b5d-866d-b9dea563a693" testListId="8c84fa94-04c1-424b-9868-57a2d4851a1d" />
    <TestEntry testId="48a76434-4925-75c2-50dc-6c7914285373" executionId="8a427247-d97c-4407-9a35-84114c5b3a90" testListId="8c84fa94-04c1-424b-9868-57a2d4851a1d" />
    <TestEntry testId="852bb707-8402-89a6-5c94-ed405e76cff0" executionId="17ca3f1b-1d7c-4497-9bea-d086cb927055" testListId="8c84fa94-04c1-424b-9868-57a2d4851a1d" />
    <TestEntry testId="3c517257-eb28-1e5a-14cd-2a33c1891673" executionId="36805401-8abe-470a-ba53-5cd9ed71480d" testListId="8c84fa94-04c1-424b-9868-57a2d4851a1d" />
    <TestEntry testId="dd2e0762-438f-26d1-4f5a-f25597944f75" executionId="85d02beb-3556-4f8c-a777-1fca10a93270" testListId="8c84fa94-04c1-424b-9868-57a2d4851a1d" />
    <TestEntry testId="bc47d95a-3d43-0a98-cb8b-26fcf3c09a9a" executionId="6d61c708-3754-413c-938d-3fa2f77fd0d4" testListId="8c84fa94-04c1-424b-9868-57a2d4851a1d" />
    <TestEntry testId="ee48e863-5218-f55a-d0bf-6bff2466533b" executionId="0ef0f921-2814-4378-b08b-06f1c4b29714" testListId="8c84fa94-04c1-424b-9868-57a2d4851a1d" />
  </TestEntries>
  <Results>
    <UnitTestResult executionId="3e0f73ec-9c83-42aa-b61c-d00ebb7d55db" testId="44729e2d-7f90-f836-4902-81b623b7bc80" testName="Passing_number_Three_Returns_Boolean_True" computerName="GNMALEK-PC" duration="00:00:00.0177866" startTime="2015-06-15T14:03:08.8090000+05:30" endTime="2015-06-15T14:03:09.3090000+05:30" testType="13cdc9d9-ddb5-4fa4-a97d-d965ccfc6d4b" outcome="Passed" testListId="8c84fa94-04c1-424b-9868-57a2d4851a1d" relativeResultsDirectory="3e0f73ec-9c83-42aa-b61c-d00ebb7d55db">
    </UnitTestResult>
    <UnitTestResult executionId="5ba899b7-8495-4ddd-9cc7-b1f1fe097e32" testId="dc6d8449-d7dc-6503-0a89-39387862d663" testName="Methods_Returns_Output_String_Fizz" computerName="GNMALEK-PC" duration="00:00:00.0016943" startTime="2015-06-15T14:03:09.3180000+05:30" endTime="2015-06-15T14:03:09.3300000+05:30" testType="13cdc9d9-ddb5-4fa4-a97d-d965ccfc6d4b" outcome="Passed" testListId="8c84fa94-04c1-424b-9868-57a2d4851a1d" relativeResultsDirectory="5ba899b7-8495-4ddd-9cc7-b1f1fe097e32">
    </UnitTestResult>
    <UnitTestResult executionId="847c079b-27a9-4156-857c-30769dd2b51b" testId="a62a8796-9a34-47aa-e2b0-da55cac8dcde" testName="Passing_number_Five_Returns_Output_Boolean_True" computerName="GNMALEK-PC" duration="00:00:00.0005443" startTime="2015-06-15T14:03:09.3350000+05:30" endTime="2015-06-15T14:03:09.3400000+05:30" testType="13cdc9d9-ddb5-4fa4-a97d-d965ccfc6d4b" outcome="Passed" testListId="8c84fa94-04c1-424b-9868-57a2d4851a1d" relativeResultsDirectory="847c079b-27a9-4156-857c-30769dd2b51b">
    </UnitTestResult>
    <UnitTestResult executionId="14db4ce1-ab2f-4b78-b869-fb389a0f28a3" testId="a6d5a0c9-9292-7a19-3cbc-93d50c3bdc90" testName="Methods_Returns_Output_String_Buzz" computerName="GNMALEK-PC" duration="00:00:00.0002940" startTime="2015-06-15T14:03:09.3460000+05:30" endTime="2015-06-15T14:03:09.3520000+05:30" testType="13cdc9d9-ddb5-4fa4-a97d-d965ccfc6d4b" outcome="Passed" testListId="8c84fa94-04c1-424b-9868-57a2d4851a1d" relativeResultsDirectory="14db4ce1-ab2f-4b78-b869-fb389a0f28a3">
    </UnitTestResult>
    <UnitTestResult executionId="34ebd547-0397-4f5b-9e2f-11875ada57e1" testId="933b57a3-5db4-ec67-8f07-389246d8cf7e" testName="Passing_Number_Fifteen_Returns_Output_Boolean_True" computerName="GNMALEK-PC" duration="00:00:00.0005227" startTime="2015-06-15T14:03:09.3570000+05:30" endTime="2015-06-15T14:03:09.3620000+05:30" testType="13cdc9d9-ddb5-4fa4-a97d-d965ccfc6d4b" outcome="Passed" testListId="8c84fa94-04c1-424b-9868-57a2d4851a1d" relativeResultsDirectory="34ebd547-0397-4f5b-9e2f-11875ada57e1">
    </UnitTestResult>
    <UnitTestResult executionId="a4c43eb8-5278-4b5d-866d-b9dea563a693" testId="618acf3b-f6fe-7c09-b5e6-652d38cc7f8b" testName="Methods_Returns_Output_String_FizzBuzz" computerName="GNMALEK-PC" duration="00:00:00.0002545" startTime="2015-06-15T14:03:09.3690000+05:30" endTime="2015-06-15T14:03:09.3730000+05:30" testType="13cdc9d9-ddb5-4fa4-a97d-d965ccfc6d4b" outcome="Passed" testListId="8c84fa94-04c1-424b-9868-57a2d4851a1d" relativeResultsDirectory="a4c43eb8-5278-4b5d-866d-b9dea563a693">
    </UnitTestResult>
    <UnitTestResult executionId="8a427247-d97c-4407-9a35-84114c5b3a90" testId="48a76434-4925-75c2-50dc-6c7914285373" testName="Passing_Number_Fifteen_Returns_Output_Items_Count_Fifteen" computerName="GNMALEK-PC" duration="00:00:03.6511488" startTime="2015-06-15T14:03:09.3780000+05:30" endTime="2015-06-15T14:03:13.0360000+05:30" testType="13cdc9d9-ddb5-4fa4-a97d-d965ccfc6d4b" outcome="Failed" testListId="8c84fa94-04c1-424b-9868-57a2d4851a1d" relativeResultsDirectory="8a427247-d97c-4407-9a35-84114c5b3a90">
      <Output>
        <ErrorInfo>
          <Message>Assert.AreEqual failed. Expected:&lt;15 (System.Int32)&gt;. Actual:&lt;System.Collections.Generic.List`1[AvivaFizzBuzz.Web.Models.FizzBuzzDto] (System.Collections.Generic.List`1[[AvivaFizzBuzz.Web.Models.FizzBuzzDto, AvivaFizzBuzz.Web, Version=1.0.0.0, Culture=neutral, PublicKeyToken=null]])&gt;. </Message>
          <StackTrace>   at AvivaFizzBuzz.UnitTest.UnitOfWorkTest.Passing_Number_Fifteen_Returns_Output_Items_Count_Fifteen() in E:\bitbucketRepository\aviva-fizz-buzz-fuzail-mansoori\AvivaFizzBuzz\AvivaFizzBuzz.UnitTest\UnitOfWorkTest.cs:line 26
</StackTrace>
        </ErrorInfo>
      </Output>
    </UnitTestResult>
    <UnitTestResult executionId="17ca3f1b-1d7c-4497-9bea-d086cb927055" testId="852bb707-8402-89a6-5c94-ed405e76cff0" testName="Passing_Number_Greater_Than_OneThousand_Throws_IndexOutOfRangeException" computerName="GNMALEK-PC" duration="00:00:02.1697573" startTime="2015-06-15T14:03:13.0450000+05:30" endTime="2015-06-15T14:03:15.2200000+05:30" testType="13cdc9d9-ddb5-4fa4-a97d-d965ccfc6d4b" outcome="Passed" testListId="8c84fa94-04c1-424b-9868-57a2d4851a1d" relativeResultsDirectory="17ca3f1b-1d7c-4497-9bea-d086cb927055">
    </UnitTestResult>
    <UnitTestResult executionId="36805401-8abe-470a-ba53-5cd9ed71480d" testId="3c517257-eb28-1e5a-14cd-2a33c1891673" testName="Passing_Number_Less_Than_One_Throws_IndexOutOfRangeException" computerName="GNMALEK-PC" duration="00:00:00.5660561" startTime="2015-06-15T14:03:15.2310000+05:30" endTime="2015-06-15T14:03:15.8050000+05:30" testType="13cdc9d9-ddb5-4fa4-a97d-d965ccfc6d4b" outcome="Passed" testListId="8c84fa94-04c1-424b-9868-57a2d4851a1d" relativeResultsDirectory="36805401-8abe-470a-ba53-5cd9ed71480d">
    </UnitTestResult>
    <UnitTestResult executionId="85d02beb-3556-4f8c-a777-1fca10a93270" testId="dd2e0762-438f-26d1-4f5a-f25597944f75" testName="Index_ActionResult_Returns_ViewResult" computerName="GNMALEK-PC" duration="00:00:01.0677262" startTime="2015-06-15T14:03:15.8220000+05:30" endTime="2015-06-15T14:03:16.8980000+05:30" testType="13cdc9d9-ddb5-4fa4-a97d-d965ccfc6d4b" outcome="Failed" testListId="8c84fa94-04c1-424b-9868-57a2d4851a1d" relativeResultsDirectory="85d02beb-3556-4f8c-a777-1fca10a93270">
      <Output>
        <ErrorInfo>
          <Message>Test method AvivaFizzBuzz.UnitTest.FizzBuzzControllerTest.Index_ActionResult_Returns_ViewResult threw exception: 
System.NotImplementedException: The method or operation is not implemented.</Message>
          <StackTrace>    at AvivaFizzBuzz.UnitTest.FizzBuzzController.Index() in E:\bitbucketRepository\aviva-fizz-buzz-fuzail-mansoori\AvivaFizzBuzz\AvivaFizzBuzz.UnitTest\FizzBuzzController.cs:line 12
   at AvivaFizzBuzz.UnitTest.FizzBuzzControllerTest.Index_ActionResult_Returns_ViewResult() in E:\bitbucketRepository\aviva-fizz-buzz-fuzail-mansoori\AvivaFizzBuzz\AvivaFizzBuzz.UnitTest\FizzBuzzControllerTest.cs:line 29
</StackTrace>
        </ErrorInfo>
      </Output>
    </UnitTestResult>
    <UnitTestResult executionId="6d61c708-3754-413c-938d-3fa2f77fd0d4" testId="bc47d95a-3d43-0a98-cb8b-26fcf3c09a9a" testName="Index_ActionResult_Returns_Index_View" computerName="GNMALEK-PC" duration="00:00:00.7149105" startTime="2015-06-15T14:03:16.9090000+05:30" endTime="2015-06-15T14:03:17.6310000+05:30" testType="13cdc9d9-ddb5-4fa4-a97d-d965ccfc6d4b" outcome="Failed" testListId="8c84fa94-04c1-424b-9868-57a2d4851a1d" relativeResultsDirectory="6d61c708-3754-413c-938d-3fa2f77fd0d4">
      <Output>
        <ErrorInfo>
          <Message>Test method AvivaFizzBuzz.UnitTest.FizzBuzzControllerTest.Index_ActionResult_Returns_Index_View threw exception: 
System.NotImplementedException: The method or operation is not implemented.</Message>
          <StackTrace>    at AvivaFizzBuzz.UnitTest.FizzBuzzController.Index() in E:\bitbucketRepository\aviva-fizz-buzz-fuzail-mansoori\AvivaFizzBuzz\AvivaFizzBuzz.UnitTest\FizzBuzzController.cs:line 12
   at AvivaFizzBuzz.UnitTest.FizzBuzzControllerTest.Index_ActionResult_Returns_Index_View() in E:\bitbucketRepository\aviva-fizz-buzz-fuzail-mansoori\AvivaFizzBuzz\AvivaFizzBuzz.UnitTest\FizzBuzzControllerTest.cs:line 42
</StackTrace>
        </ErrorInfo>
      </Output>
    </UnitTestResult>
    <UnitTestResult executionId="0ef0f921-2814-4378-b08b-06f1c4b29714" testId="ee48e863-5218-f55a-d0bf-6bff2466533b" testName="Index_ActionResult_Returns_Lists_Of_Items" computerName="GNMALEK-PC" duration="00:00:00.9074999" startTime="2015-06-15T14:03:17.6380000+05:30" endTime="2015-06-15T14:03:18.5530000+05:30" testType="13cdc9d9-ddb5-4fa4-a97d-d965ccfc6d4b" outcome="Failed" testListId="8c84fa94-04c1-424b-9868-57a2d4851a1d" relativeResultsDirectory="0ef0f921-2814-4378-b08b-06f1c4b29714">
      <Output>
        <ErrorInfo>
          <Message>Test method AvivaFizzBuzz.UnitTest.FizzBuzzControllerTest.Index_ActionResult_Returns_Lists_Of_Items threw exception: 
System.NotImplementedException: The method or operation is not implemented.</Message>
          <StackTrace>    at AvivaFizzBuzz.UnitTest.FizzBuzzController.Index(FizzBuzzViewModel objmodel) in E:\bitbucketRepository\aviva-fizz-buzz-fuzail-mansoori\AvivaFizzBuzz\AvivaFizzBuzz.UnitTest\FizzBuzzController.cs:line 17
   at AvivaFizzBuzz.UnitTest.FizzBuzzControllerTest.Index_ActionResult_Returns_Lists_Of_Items() in E:\bitbucketRepository\aviva-fizz-buzz-fuzail-mansoori\AvivaFizzBuzz\AvivaFizzBuzz.UnitTest\FizzBuzzControllerTest.cs:line 60
</StackTrace>
        </ErrorInfo>
      </Output>
    </UnitTestResult>
  </Results>
</TestRun>